%YAML 1.1
%TAG !u! tag:unity3d.com,2011:
--- !u!1045 &1
EditorBuildSettings:
  m_ObjectHideFlags: 0
  serializedVersion: 2
  m_Scenes:
  - enabled: 1
    path: Assets/Scenes/MainMenu.unity
    guid: 59fda6e2cc961e444a446d894f524e54
  - enabled: 1
    path: Assets/Scenes/SelectGame.unity
    guid: 61f04d8d7081e0c4b9dd6d5d910e0026
  - enabled: 1
    path: Assets/Scenes/Settings.unity
    guid: ef26a5a6db13ff442973c00a60690199
  - enabled: 1
    path: Assets/Scenes/BlackJack.unity
    guid: 966d543ff33fe644c835bc6ad39bac6a
  - enabled: 1
    path: Assets/Scenes/Bank.unity
    guid: e28ddd42b911bbf4c9f49bd3905e2e43
  m_configObjects: {}
